{
  "project_info": {
    "project_number": "182500157642",
    "firebase_url": "https://admob-app-id-9376379312.firebaseio.com",
    "project_id": "admob-app-id-9376379312",
    "storage_bucket": "admob-app-id-9376379312.appspot.com"
  },
  "client": [
    {
      "client_info": {
        "mobilesdk_app_id": "1:182500157642:android:ef38fd9d0db55274",
        "android_client_info": {
          "package_name": "com.ne.hdv"
        }
      },
      "oauth_client": [
        {
          "client_id": "182500157642-00nj5hah6qgmhn2j3crbhiusda1vgii6.apps.googleusercontent.com",
          "client_type": 1,
          "android_info": {
            "package_name": "com.ne.hdv",
            "certificate_hash": "81369e486d1562c6c87a3916fd13a3feb4c91427"
          }
        },
        {
          "client_id": "182500157642-lcu24qkajtfnd0s6dhk3rabgdg4aefkk.apps.googleusercontent.com",
          "client_type": 1,
          "android_info": {
            "package_name": "com.ne.hdv",
            "certificate_hash": "04629535419c3a20aaeb85c4f2bfe8fd32d09321"
          }
        },
        {
          "client_id": "182500157642-9gm1okkh5n77g4cbur4l7gu9i38nv5dh.apps.googleusercontent.com",
          "client_type": 3
        }
      ],
      "api_key": [
        {
          "current_key": "AIzaSyCF_Xrvb4oWwbiGQhCyKLFpGegMzWbmtZE"
        }
      ],
      "services": {
        "analytics_service": {
          "status": 1
        },
        "appinvite_service": {
          "status": 1,
          "other_platform_oauth_client": []
        },
        "ads_service": {
          "status": 2
        }
      }
    },
    {
      "client_info": {
        "mobilesdk_app_id": "1:182500157642:android:b7e4e626fefd2f54",
        "android_client_info": {
          "package_name": "io.jmobile.browser"
        }
      },
      "oauth_client": [
        {
          "client_id": "182500157642-9gm1okkh5n77g4cbur4l7gu9i38nv5dh.apps.googleusercontent.com",
          "client_type": 3
        }
      ],
      "api_key": [
        {
          "current_key": "AIzaSyCF_Xrvb4oWwbiGQhCyKLFpGegMzWbmtZE"
        }
      ],
      "services": {
        "analytics_service": {
          "status": 1
        },
        "appinvite_service": {
          "status": 1,
          "other_platform_oauth_client": []
        },
        "ads_service": {
          "status": 2
        }
      }
    }
  ],
  "configuration_version": "1"
}